module gitlab.com/timiashkinadar/l0

go 1.20

require (
	github.com/lib/pq v1.10.9
	github.com/nats-io/stan.go v0.10.4
)

require (
	github.com/fsnotify/fsnotify v1.6.0 // indirect
	github.com/georgysavva/scany/v2 v2.0.0 // indirect
	github.com/go-chi/chi/v5 v5.0.8 // indirect
	github.com/gogo/protobuf v1.3.2 // indirect
	github.com/golang/protobuf v1.5.3 // indirect
	github.com/hashicorp/hcl v1.0.0 // indirect
	github.com/magiconair/properties v1.8.7 // indirect
	github.com/mitchellh/mapstructure v1.5.0 // indirect
	github.com/nats-io/nats-server/v2 v2.9.17 // indirect
	github.com/nats-io/nats-streaming-server v0.25.4 // indirect
	github.com/nats-io/nats.go v1.25.0 // indirect
	github.com/nats-io/nkeys v0.4.4 // indirect
	github.com/nats-io/nuid v1.0.1 // indirect
	github.com/pelletier/go-toml/v2 v2.0.6 // indirect
	github.com/spf13/afero v1.9.3 // indirect
	github.com/spf13/cast v1.5.0 // indirect
	github.com/spf13/jwalterweatherman v1.1.0 // indirect
	github.com/spf13/pflag v1.0.5 // indirect
	github.com/spf13/viper v1.15.0 // indirect
	github.com/subosito/gotenv v1.4.2 // indirect
	golang.org/x/crypto v0.8.0 // indirect
	golang.org/x/sys v0.7.0 // indirect
	golang.org/x/text v0.9.0 // indirect
	google.golang.org/protobuf v1.30.0 // indirect
	gopkg.in/ini.v1 v1.67.0 // indirect
	gopkg.in/yaml.v3 v3.0.1 // indirect
)
